<?xml version="1.0"?>
<robot name="vehiclemodel" xmlns:xacro="http://www.ros.org/wiki/xacro">
  
    <!--half pi-->
    <xacro:property name="PI_HALF" value="1.570796"/>

    <!--variables for base and wheel-->
    <!--base size and mass-->
    <xacro:property name="base_length" value="3.2"/>
    <xacro:property name="base_width" value="0.6"/>
    <xacro:property name="base_heigth" value="0.3"/>
    <xacro:property name="base_collision_heigth" value="0.3255"/>
    <xacro:property name="base_mass" value="100"/>
    <xacro:property name="base_mass_ixx" value="40.2"/>
    <xacro:property name="base_mass_iyy" value="20.2"/>
    <xacro:property name="base_mass_izz" value="20.2"/>

    <!--Axis parameter-->
    <xacro:property name="axis_length" value="1.6"/>
    <xacro:property name="axis_radius" value="0.05"/>

    <!--steering hinge parameter-->
    <xacro:property name="hinge_length" value="0.1"/>
    <xacro:property name="hinge_radius" value="0.01"/>
    <xacro:property name="max_steering_angle" value="0.6"/>
    <xacro:property name="hinge_mass" value="5.0"/>
    <xacro:property name="hinge_mass_ixx" value="1.0"/>
    <xacro:property name="hinge_mass_iyy" value="1.0"/>
    <xacro:property name="hinge_mass_izz" value="1.0"/>
    
    <!--wheel parameter-->
    <xacro:property name="wheel_length" value="0.20"/>
    <xacro:property name="wheel_radius" value="0.3255"/> 
    <xacro:property name="wheel_mass" value="20"/>
    <xacro:property name="wheel_mass_ixx" value="0.653"/>
    <xacro:property name="wheel_mass_iyy" value="1.055"/>
    <xacro:property name="wheel_mass_izz" value="0.653"/>
    
    <!--wheel position-->
    <xacro:property name="wheel_x" value="1.5"/>
    <xacro:property name="wheel_y" value="0.8"/>
    <xacro:property name="wheel_z" value="0.3255"/>

    <xacro:include filename="$(find vehicle_description)/urdf/materials.xacro" />

    <!--link and joint-->
    <!--base-->
    <link name="base_link">
        <visual>
            <geometry>
                <!-- <box size="${base_length} ${base_width} ${base_heigth}"/> -->
                <mesh filename= "package://vehicle_description/urdf/simplified_meshes/chassis.stl"/>
            </geometry>
            <origin xyz="0 0 0" rpy="0 0 0" />
            <material name="white"/>
        </visual>

        <collision>
            <geometry>
                <!-- <box size="${base_length} ${base_width} ${base_heigth}"/> -->
                <mesh filename= "package://vehicle_description/urdf/simplified_meshes/chassis.stl"/>
            </geometry>
            <origin xyz="0 0 0" rpy="0 0 0" />
        </collision>
        
    </link>

    <link name="case_link">
        <visual>
            <geometry>
                <!-- <box size="1.8 1.7 ${base_heigth}"/> -->
                <mesh filename= "package://vehicle_description/urdf/simplified_meshes/case.stl"/>
            </geometry>
            <origin xyz="0 0 0" rpy="0 0 0" />
            <material name="blue"/>
        </visual>
        <collision>
            <geometry>
                <mesh filename= "package://vehicle_description/urdf/simplified_meshes/case.stl"/>
            </geometry>
            <origin xyz="0 0 0" rpy="0 0 0" />
        </collision>
    </link>

    <link name="front_axis_link">
        <visual>
            <geometry>
                <!-- <cylinder length="1.0" radius="0.05"/> -->
                <mesh filename= "package://vehicle_description/urdf/simplified_meshes/front_axis.stl"/>
            </geometry>
            <origin xyz="0 0 0" rpy="0 ${PI_HALF*2} 0" />
            <material name="orange"/>
        </visual>
        <collision>
            <geometry>
                <cylinder length="1.0" radius="0.05"/>
            </geometry>
            <origin xyz="0 0 0" rpy="${PI_HALF} 0 0" />
        </collision>
    </link>

    <link name="rear_axis_link">
        <visual>
            <geometry>
                <!-- <cylinder length="1.0" radius="0.05"/> -->
                <mesh filename= "package://vehicle_description/urdf/simplified_meshes/rear_axis.stl"/>
            </geometry>
            <origin xyz="0 0 0" rpy="0 ${PI_HALF*2} 0" />
            <material name="orange"/>
        </visual>
        <collision>
            <geometry>
                <cylinder length="1.0" radius="0.05"/>
            </geometry>
            <origin xyz="0 0 0" rpy="${PI_HALF} 0 0" />
        </collision>
    </link>

    <joint name="base_to_case" type="fixed">
        <parent link="base_link"/>
        <child link="case_link"/>
        <origin xyz="0 0 0" rpy="0 0 0"/>
    </joint> 

    <joint name="base_to_front_axis" type="fixed">
        <parent link="base_link"/>
        <child link="front_axis_link"/>
        <origin xyz="1.5 0 0" rpy="0 0 0"/>
    </joint> 

    <joint name="base_to_rear_axis" type="fixed">
        <parent link="base_link"/>
        <child link="rear_axis_link"/>
        <origin xyz="-1.5 0 0" rpy="0 0 0"/>
    </joint> 

    <joint name="inertial_joint" type="fixed">
        <parent link="base_link"/>
        <child link="base_mass"/>
        <origin xyz="0 0 0" rpy="0 0 0"/>
    </joint>  

    <link name="base_mass" type="fixed">
        <inertial>
            <origin xyz="0 0 0" rpy="0 0 0"/>
            <mass value="${base_mass}"/>
            <inertia
                ixx="${base_mass_ixx}"  ixy="0.0"  ixz="0.0"
                iyy="${base_mass_iyy}"  iyz="0.0"
                izz="${base_mass_izz}"/>
        </inertial>
    </link>

    <gazebo reference="base_link">
        <material>Gazebo/Black</material>
        <selfCollide>true</selfCollide>
    </gazebo>
    
    <gazebo reference="front_axis_link">
        <material>Gazebo/Blue</material>
        <selfCollide>true</selfCollide>
    
    </gazebo>
        <gazebo reference="rear_axis_link">
        <material>Gazebo/Blue</material>
        <selfCollide>true</selfCollide>
    </gazebo>

    <!--hinges to connect wheels to base_link-->
    <xacro:macro name="front_steering_hinge" params="prefix suffix c1 c2">
        <link name="${prefix}_${suffix}_steering_hinge">   
            <visual>
                <geometry>
                    <cylinder length="${hinge_length}" radius="${hinge_radius}"/>
                </geometry>
                <material name="orange"/>
                <origin xyz="0 0 0" rpy="${PI_HALF} 0 0" />
            </visual>
            
            <inertial>
                <mass value="${hinge_mass}" />
                <inertia 
                    ixx="${hinge_mass_ixx}" ixy="0.0" ixz="0.0" 
                    iyy="${hinge_mass_ixx}" iyz="0.0" 
                    izz="${hinge_mass_ixx}" />
                <origin rpy="0 0 0" xyz="0 0 0"/>
            </inertial>
        </link>

        <joint name="${prefix}_${suffix}_steering_hinge_joint" type="revolute">
            <axis xyz="0 0 1"/>
            <parent link="base_link"/>
            <child link="${prefix}_${suffix}_steering_hinge"/>
            <origin xyz="${c1 * wheel_x} ${c2 * wheel_y} 0" rpy="0 0 0" />
            <limit effort="1000000.0" lower="${-max_steering_angle}" upper="${max_steering_angle}" velocity="10000.0"/>
            <dynamics damping="10.0" friction="0.0"/>
        </joint>

    </xacro:macro>

    <xacro:front_steering_hinge prefix="front" suffix="left" c1="1" c2="1"/>
    <xacro:front_steering_hinge prefix="front" suffix="right" c1="1" c2="-1"/>
    
    <xacro:macro name="rear_steering_hinge" params="prefix suffix c1 c2">
        <link name="${prefix}_${suffix}_steering_hinge">   
            <visual>
                <geometry>
                    <cylinder length="${hinge_length}" radius="${hinge_radius}"/>
                </geometry>
                <material name="orange"/>
                <origin xyz="0 0 0" rpy="${PI_HALF} 0 0" />
            </visual>
            
            <inertial>
                <mass value="${hinge_mass}" />
                <inertia 
                    ixx="${hinge_mass_ixx}" ixy="0.0" ixz="0.0" 
                    iyy="${hinge_mass_ixx}" iyz="0.0" 
                    izz="${hinge_mass_ixx}" />
                <origin rpy="0 0 0" xyz="0 0 0"/>
            </inertial>
        </link>

        <joint name="${prefix}_${suffix}_steering_hinge_joint" type="revolute">
            <axis xyz="0 0 1"/>
            <parent link="base_link"/>
            <child link="${prefix}_${suffix}_steering_hinge"/>
            <origin xyz="${c1 * wheel_x} ${c2 * wheel_y} 0" rpy="0 0 0" />
            <limit effort="1000000.0" lower="${-max_steering_angle}" upper="${max_steering_angle}" velocity="10000.0"/>
            <dynamics damping="10.0" friction="0.0"/>
        </joint>

    </xacro:macro>
    
    <xacro:rear_steering_hinge prefix="rear" suffix="left" c1="-1" c2="1"/>
    <xacro:rear_steering_hinge prefix="rear" suffix="right" c1="-1" c2="-1"/>

    <!--wheels with continuous joint, connected with hinge link-->
    <xacro:macro name="wheel" params="prefix suffix">
        <link name="${prefix}_${suffix}_wheel"> 
            <visual>
                <geometry>
                    <mesh filename= "package://vehicle_description/urdf/simplified_meshes/${prefix}_${suffix}_wheel.stl"/>
                </geometry>
                <material name="white"/>
                <origin xyz="0 0 0" rpy="${PI_HALF*2} 0 0"/>
            </visual>
            
            <collision>
                <geometry>
                    <cylinder length="${wheel_length}" radius="${wheel_radius}"/>
                    <!-- <mesh filename= "package://vehicle_description/urdf/simplified_meshes/${prefix}_${suffix}_wheel.stl"/> -->
                </geometry>
                <origin xyz="0 0 0" rpy="${PI_HALF} 0 0"/>
            </collision>
            
            <inertial>
                <origin xyz="0 0 0" rpy="${PI_HALF} 0 0"/>
                <mass value="${wheel_mass}" />
                <inertia 
                    ixx="${wheel_mass_ixx}" ixy="0.0" ixz="0.0" 
                    iyy="${wheel_mass_iyy}" iyz="0.0" 
                    izz="${wheel_mass_izz}" />
            </inertial>

            <surface>
                <friction>
                    <ode>
                        <mu>0.8</mu>
                        <mu2>0.8</mu2>
                    </ode>
                </friction>
                 <contact>
                    <ode>
                        <min_depth>0.01</min_depth>
                    </ode>
                    </contact>
            </surface>
        </link>

        <joint name="${prefix}_${suffix}_wheel_joint" type="continuous">
            <axis xyz="0 1 0"/>
            <parent link="${prefix}_${suffix}_steering_hinge"/>
            <child link="${prefix}_${suffix}_wheel"/>
            <origin xyz="0 0 0" rpy="0 0 0"/>
            <dynamics damping="0.0" friction="0.1"/>
            <limit effort="100000" velocity="10000"/>
            <!-- <joint_properties damping="0.0" friction="0.0"/> -->
        </joint>

    </xacro:macro>

    <xacro:wheel prefix="front" suffix="left"/>
    <xacro:wheel prefix="front" suffix="right"/>
    <xacro:wheel prefix="rear" suffix="left"/>
    <xacro:wheel prefix="rear" suffix="right"/>

    <!--transmission steering hinge joints-->
    <xacro:macro name="trans_hinge" params="prefix suffix">
        <transmission name="${prefix}_${suffix}_steering_hinge_trans">
        <type>transmission_interface/SimpleTransmission</type>
        <joint name="${prefix}_${suffix}_steering_hinge_joint">
            <hardwareInterface>hardware_interface/EffortJointInterface</hardwareInterface>
        </joint>
        <actuator name="${prefix}_${suffix}_steering_hinge_motor">
            <hardwareInterface>hardware_interface/EffortJointInterface</hardwareInterface>
            <mechanicalReduction>1</mechanicalReduction>
            <!-- <motorTorqueConstant>1000000</motorTorqueConstant> -->
        </actuator>
        </transmission>
    </xacro:macro>

    <xacro:trans_hinge prefix="front" suffix="left" />
    <xacro:trans_hinge prefix="front" suffix="right" />
    <xacro:trans_hinge prefix="rear" suffix="left" />
    <xacro:trans_hinge prefix="rear" suffix="right" />


    <!--transmission wheel joints-->
    <xacro:macro name="trans" params="prefix suffix">
        <transmission name="${prefix}_${suffix}_wheel_trans">
        <type>transmission_interface/SimpleTransmission</type>
        <joint name="${prefix}_${suffix}_wheel_joint">
            <!-- <hardwareInterface>hardware_interface/VelocityJointInterface</hardwareInterface> -->
            <hardwareInterface>hardware_interface/EffortJointInterface</hardwareInterface>
        </joint>
        <actuator name="${prefix}_${suffix}_wheel_motor">
            <!-- <hardwareInterface>hardware_interface/VelocityJointInterface</hardwareInterface> -->
            <hardwareInterface>hardware_interface/EffortJointInterface</hardwareInterface>
            <mechanicalReduction>1</mechanicalReduction>
        </actuator>
        </transmission>
    </xacro:macro>
    
    <xacro:trans prefix="front" suffix="left" />
    <xacro:trans prefix="front" suffix="right" />
    <xacro:trans prefix="rear" suffix="left" />
    <xacro:trans prefix="rear" suffix="right" />


    <!-- ros_control plugin -->
    <gazebo>
        <plugin name="gazebo_ros_control" filename="libgazebo_ros_control.so">
            <robotNamespace>/vehiclemodel</robotNamespace>
            <robotParam>robot_description</robotParam>
            <robotSimType>gazebo_ros_control/DefaultRobotHWSim</robotSimType>
            <legacyModeNS>true</legacyModeNS>
        </plugin>
    </gazebo>

    <gazebo>
        <plugin name="joint_state_publisher" filename="libgazebo_ros_joint_state_publisher.so">
            <jointName> front_left_wheel_joint, front_right_wheel_joint, rear_left_wheel_joint, rear_right_wheel_joint, front_left_steering_hinge_joint, front_right_steering_hinge_joint, rear_left_steering_hinge_joint, rear_right_steering_hinge_joint</jointName>
            <updateRate>-1</updateRate>
            <robotNamespace>/vehiclemodel</robotNamespace>
            <alwaysOn>true</alwaysOn>
        </plugin>
    </gazebo>

</robot>